databaseName,query,table,runID,engineExecutionTimeInSec,dataScannedInMegaBytes,rowCount
nb_diabetic_disease,SELECT * from aabmy20_detail,aabmy20_detail,None,0.816,1.621246337890625e-05,1
nb_diabetic_disease,SELECT * FROM aabmy20_detail WHERE nb_run='1',aabmy20_detail,1,0.628,1.621246337890625e-05,1
nb_diabetic_disease,SELECT * from aabmy20_detail_content,aabmy20_detail_content,None,0.823,1.621246337890625e-05,1
nb_diabetic_disease,SELECT * FROM aabmy20_detail_content WHERE nb_run='1',aabmy20_detail_content,1,0.688,1.621246337890625e-05,1
